<svg xmlns="http://www.w3.org/2000/svg" width="66.883" height="55.245" viewBox="0 0 66.883 55.245">
  <g id="noun_agile_2525741" transform="translate(-5 -8.913)">
    <g id="Group_282" data-name="Group 282" transform="translate(5 8.913)">
      <path id="Path_425" data-name="Path 425" d="M34.531,45.062A12.531,12.531,0,1,0,22,32.531,12.531,12.531,0,0,0,34.531,45.062ZM27.376,31.641a1.253,1.253,0,0,1,1.779,0l3.5,3.509,7.255-7.268a1.258,1.258,0,0,1,1.779,1.779l-8.145,8.145a1.253,1.253,0,0,1-1.779,0l-4.386-4.386a1.253,1.253,0,0,1,0-1.779Z" transform="translate(-0.697 -6.107)" fill="#007aff"/>
      <path id="Path_426" data-name="Path 426" d="M65.148,31.112h2.506L64.923,27.7h0L63.67,26.075a1.253,1.253,0,0,0-1.955,0L59.936,28.23,57.63,31.112h2.506a21.3,21.3,0,0,1-21.3,21.3H6.253A1.253,1.253,0,0,0,5,53.668v2.506a1.253,1.253,0,0,0,1.253,1.253h32.58A26.315,26.315,0,0,0,65.149,31.112Z" transform="translate(-5 -4.688)" fill="#5ac8fa"/>
      <path id="Path_427" data-name="Path 427" d="M11.732,38.758l1.253,1.629a1.253,1.253,0,0,0,1.955,0l1.729-2.155,2.356-2.895H16.519a21.3,21.3,0,0,1,40.575-9.1,1.253,1.253,0,0,0,2.03.326L61,24.686a1.253,1.253,0,0,0,.238-1.454,26.315,26.315,0,0,0-49.735,12.1H9l2.732,3.408Z" transform="translate(-3.988 -8.913)" fill="#5ac8fa"/>
      <path id="Path_428" data-name="Path 428" d="M62.206,49.035,57.194,45v2.506h-8.17a27.38,27.38,0,0,1-2.506,2.03,27.906,27.906,0,0,1-5.138,2.982H57.194v2.506l5.012-4.035a1.253,1.253,0,0,0,0-1.955Z" transform="translate(4.208 0.221)" fill="#5ac8fa"/>
      <path id="Path_429" data-name="Path 429" d="M16.834,35.94,13,39.774a26.19,26.19,0,0,0,5.388,7.519h8.4a21.3,21.3,0,0,1-9.95-11.353Z" transform="translate(-2.975 -2.072)" fill="#5ac8fa"/>
    </g>
  </g>
</svg>
